# 3ds Max Wavefront OBJ Exporter v0.97b - (c)2007 guruware
# File Created: 20.05.2016 13:38:59

mtllib Ke Dep.mtl

#
# object Ke_Dep_Tivi
#

v  -794.1572 1810.6328 954.5566
v  791.9070 1810.6348 954.5566
v  883.3751 1917.7859 1046.0190
v  -885.6245 1917.7842 1046.0190
v  962.4536 1810.6348 784.0057
v  962.4536 1810.6348 -802.0563
v  1038.2170 1917.7859 -893.5256
v  1038.2170 1917.7859 875.4749
v  -943.2349 1810.6326 -806.0673
v  -942.6423 1810.6328 784.0056
v  -1038.2172 1917.7842 875.4750
v  -1038.0826 1917.7842 -897.5356
v  -850.2511 1810.6331 -858.1533
v  -941.7186 1917.7842 -949.6212
v  -889.6340 1917.7842 -1045.9958
v  -798.1671 1810.6326 -974.2205
v  -946.4062 1917.7842 936.2559
v  -854.9395 1810.6328 844.7894
v  944.1567 1917.7864 936.2567
v  852.6898 1810.6348 844.7896
v  852.6896 1810.6348 -862.8405
v  944.1570 1917.7864 -954.3081
v  791.9070 1810.6348 -972.6070
v  883.3748 1917.7859 -1046.0190
v  -683.7496 1594.9834 -848.8726
v  -735.8339 1594.9834 -743.7367
v  -772.7238 1689.8821 -780.6240
v  -720.6385 1689.8818 -892.6661
v  -799.6087 1594.9834 -691.6522
v  -848.8467 1689.8821 -728.5399
v  677.4919 1594.9854 -849.0454
v  714.3782 1689.8818 -857.1196
v  775.1613 1689.8821 -785.3114
v  738.2728 1594.9856 -748.4246
v  857.5458 1689.8818 -724.5321
v  811.4846 1594.9856 -687.6411
v  -735.7986 0.0007 -743.7711
v  -799.6089 0.0010 -691.6627
v  -683.7395 0.0010 -848.8728
v  811.4846 0.0007 -687.6411
v  738.3118 0.0010 -748.3843
v  -740.5219 1594.9832 730.3723
v  -799.6119 1594.9832 669.5903
v  -799.6119 0.0007 669.5903
v  -740.5598 0.0007 730.3329
v  -679.7393 0.0007 844.9561
v  -679.7394 1594.9834 845.4511
v  -848.8445 2123.8276 670.1063
v  -1038.2170 2123.7273 875.4721
v  -946.3856 2123.7273 936.2731
v  -741.0605 2123.8276 730.8718
v  -796.0453 1702.1790 -972.0977
v  -848.1293 1702.1790 -856.0308
v  -940.5206 1702.1790 781.8840
v  -941.1130 1702.1790 -803.9456
v  -705.2650 2326.8950 537.0153
v  -589.5365 2327.0200 594.0750
v  -589.2468 2327.0205 -596.5237
v  -704.9824 2327.0205 -555.3452
v  -848.8414 2123.8279 -692.1765
v  -1038.0828 2123.7273 -897.5281
v  1038.2170 2123.7275 -893.5234
v  1038.2170 2123.7275 875.4721
v  677.4919 0.0010 -849.0454
v  677.4922 0.0007 844.9561
v  677.4922 1594.9856 845.4511
v  -849.2766 1689.8821 706.4793
v  960.3317 1702.1814 781.8840
v  857.5458 1689.8818 706.4794
v  960.3317 1702.1814 -799.9346
v  789.7854 1702.1814 -970.4832
v  811.4844 1594.9854 669.5906
v  -792.0354 1702.1790 952.4317
v  789.7854 1702.1814 952.4317
v  -716.6284 1689.8821 877.4775
v  714.3787 1689.8821 877.0258
v  811.4846 0.0007 669.5905
v  -684.2635 2123.8276 -856.6538
v  -547.4557 2327.0205 -711.0526
v  541.1901 2327.0205 -711.2350
v  678.0093 2123.8279 -856.8266
v  857.3392 2123.8279 670.1069
v  857.3392 2123.8281 -688.1624
v  711.7363 2327.0205 -551.3395
v  711.7363 2327.0200 533.2889
v  -680.2590 2123.8276 845.4612
v  678.0093 2123.8279 845.4612
v  541.1901 2327.0205 703.8345
v  -543.4405 2327.0205 703.8343
v  883.3728 2123.7275 1046.0188
v  -885.6232 2123.7273 1046.0188
v  883.3728 2123.7275 -1046.0189
v  -889.6384 2123.7273 -1045.9958
v  -777.4111 1689.8821 767.2607
v  775.1616 1689.8821 767.2607
v  738.2728 1594.9856 730.3723
v  738.2355 0.0007 730.4109
v  -736.3360 2123.8276 -744.2723
v  738.8109 2123.8279 -748.9235
v  601.9686 2327.0205 -596.9353
v  738.7727 2123.8279 730.9091
v  601.9755 2327.0200 594.0696
v  944.1360 2123.7275 -954.3256
v  -941.7349 2123.7273 -949.6021
v  944.1741 2123.7275 936.2357
v  -852.8174 1702.1792 842.6671
v  850.5679 1702.1814 -860.7188
v  850.5679 1702.1814 842.6672
# 108 vertices

vn 0.0000 -0.6492 0.7606
vn 0.8165 -0.5773 -0.0000
vn 0.8165 -0.5773 0.0000
vn -0.7487 -0.6630 -0.0000
vn -0.7462 -0.6658 0.0003
vn -0.7464 -0.6655 0.0002
vn -0.7488 -0.6628 -0.0001
vn -0.4691 -0.7636 -0.4437
vn -0.4515 -0.7714 -0.4484
vn -0.5978 -0.7438 -0.2989
vn -0.6283 -0.7251 -0.2819
vn -0.3152 -0.7589 -0.5698
vn -0.3087 -0.7607 -0.5710
vn -0.5711 -0.7575 0.3163
vn -0.4717 -0.7715 0.4270
vn -0.4714 -0.7698 0.4304
vn -0.3618 -0.7666 0.5306
vn -0.3527 -0.7693 0.5327
vn 0.3414 -0.7525 0.5632
vn 0.4685 -0.7699 0.4334
vn 0.4610 -0.7640 0.4513
vn 0.3276 -0.7367 0.5916
vn 0.5711 -0.7575 0.3163
vn 0.3414 -0.7525 -0.5632
vn 0.3276 -0.7367 -0.5916
vn 0.4613 -0.7570 -0.4628
vn 0.4482 -0.7701 -0.4540
vn 0.5948 -0.7333 -0.3293
vn 0.5617 -0.7517 -0.3456
vn -0.8685 -0.2582 -0.4231
vn -0.7573 -0.2399 -0.6074
vn -0.6717 -0.4993 -0.5473
vn -0.7956 -0.4799 -0.3698
vn -0.5958 -0.2689 -0.7567
vn -0.4813 -0.5231 -0.7034
vn 0.8205 -0.2016 -0.5349
vn 0.7200 -0.3317 -0.6095
vn 0.6430 -0.4598 -0.6125
vn 0.7344 -0.2421 -0.6341
vn 0.5088 -0.5151 -0.6897
vn 0.6061 -0.2657 -0.7497
vn -0.7820 -0.0000 -0.6233
vn -0.6325 0.0000 -0.7746
vn -0.8961 -0.0000 -0.4439
vn 0.6387 -0.0000 -0.7694
vn 0.7579 0.0000 -0.6524
vn -0.7833 -0.2412 0.5730
vn -0.6768 -0.2687 0.6854
vn -0.7170 -0.0000 0.6971
vn -0.8083 0.0000 0.5888
vn -0.8834 0.0000 0.4686
vn -0.8556 -0.2425 0.4573
vn -0.0004 1.0000 0.0001
vn -0.0003 1.0000 0.0002
vn -0.0002 1.0000 0.0002
vn -0.7377 -0.0276 -0.6746
vn -0.9120 -0.0259 -0.4093
vn -0.7373 -0.0276 -0.6749
vn -0.9998 -0.0196 0.0004
vn -0.0010 1.0000 0.0000
vn -0.0003 1.0000 -0.0000
vn -0.0000 1.0000 0.0000
vn 0.0000 1.0000 0.0001
vn -0.0004 1.0000 -0.0001
vn -0.0003 1.0000 -0.0002
vn 1.0000 0.0000 -0.0000
vn 0.0122 -0.2247 -0.9744
vn -0.0001 -0.0469 -0.9989
vn -0.0001 0.0000 -1.0000
vn 0.0008 -0.5650 -0.8251
vn 0.0008 -0.5657 -0.8246
vn 0.0000 -0.5569 -0.8306
vn -0.0000 -0.5565 -0.8308
vn 0.0000 -0.0003 1.0000
vn 0.0002 -0.1763 0.9843
vn 0.0000 -0.1785 0.9839
vn -0.8875 -0.4607 -0.0000
vn -0.9657 -0.2596 -0.0000
vn -0.9652 -0.2614 -0.0001
vn -0.8860 -0.4636 -0.0003
vn 0.0819 -0.9953 0.0507
vn 0.0917 -0.9949 0.0427
vn 0.0917 -0.9949 -0.0427
vn 0.0819 -0.9953 -0.0507
vn 0.9998 -0.0196 0.0000
vn 0.0010 -0.0196 -0.9998
vn 0.0010 -0.0195 -0.9998
vn 0.9694 -0.2456 0.0000
vn 0.8996 -0.4367 0.0000
vn 0.0000 -0.0196 0.9998
vn -0.1050 -0.9937 0.0385
vn -0.0906 -0.9945 0.0525
vn -0.0874 -0.9946 -0.0553
vn -0.0997 -0.9941 -0.0435
vn 0.0000 -0.3195 0.9476
vn 0.0003 -0.3158 0.9488
vn 0.0460 -0.9922 0.1158
vn 0.0648 -0.9932 0.0972
vn -0.0651 -0.9931 0.0975
vn -0.0460 -0.9921 0.1164
vn 0.0226 -0.4117 -0.9111
vn 0.0013 -0.1052 -0.9944
vn -0.0499 -0.9931 -0.1060
vn -0.0652 -0.9936 -0.0920
vn 0.0478 -0.9959 -0.0774
vn 0.0424 -0.9954 -0.0854
vn 1.0000 0.0000 0.0000
vn -0.0001 0.5825 -0.8128
vn -0.0001 0.5824 -0.8129
vn 0.8129 0.5825 0.0000
vn -0.0000 0.5718 0.8204
vn -0.8165 0.5774 -0.0000
vn -0.8161 0.5779 -0.0001
vn -0.8162 0.5778 -0.0001
vn -0.8165 0.5773 -0.0000
vn -0.0000 0.0000 1.0000
vn 0.0002 1.0000 -0.0003
vn -0.0002 1.0000 -0.0003
vn -0.0001 1.0000 -0.0004
vn 0.0001 1.0000 -0.0004
vn 0.0001 1.0000 0.0004
vn -0.0001 1.0000 0.0004
vn -0.0002 1.0000 0.0003
vn 0.0002 1.0000 0.0003
vn 0.0003 1.0000 0.0002
vn 0.0003 1.0000 -0.0002
vn 0.0004 1.0000 -0.0001
vn 0.0004 1.0000 0.0001
vn -1.0000 -0.0000 -0.0001
vn -1.0000 0.0000 -0.0001
vn -0.0000 -0.0000 -1.0000
vn -0.0000 0.0000 -1.0000
vn -0.7822 -0.4496 0.4314
vn -0.6919 -0.4910 0.5294
vn -0.5452 -0.5359 0.6446
vn 0.6061 -0.2657 0.7497
vn 0.5089 -0.5151 0.6897
vn 0.6709 -0.4864 0.5597
vn 0.7520 -0.2406 0.6137
vn 0.8556 -0.2417 0.4578
vn 0.7821 -0.4481 0.4331
vn 0.8559 0.0000 -0.5171
vn 0.7759 -0.0001 0.6309
vn 0.8835 -0.0001 0.4685
vn 0.6388 0.0000 0.7694
vn -0.5135 0.6960 0.5019
vn -0.6496 0.6777 0.3447
vn -0.6645 0.6858 0.2970
vn -0.5153 0.7087 0.4819
vn -0.3330 0.6811 0.6520
vn -0.3617 0.6763 0.6417
vn -0.5038 0.7009 -0.5049
vn -0.4917 0.7161 -0.4954
vn -0.6842 0.6794 -0.2651
vn -0.6703 0.6739 -0.3106
vn -0.3110 0.6725 -0.6716
vn -0.2611 0.6786 -0.6865
vn 0.4931 0.7004 -0.5160
vn 0.4738 0.7094 -0.5218
vn 0.2926 0.6864 -0.6658
vn 0.3347 0.6795 -0.6529
vn 0.6353 0.6843 -0.3580
vn 0.6400 0.6865 -0.3452
vn 0.6465 0.6758 0.3541
vn 0.6497 0.6776 0.3446
vn 0.5061 0.6941 0.5119
vn 0.5121 0.6896 0.5121
vn 0.3514 0.6764 0.6473
vn 0.3348 0.6795 0.6528
vn 0.0002 1.0000 -0.0002
vn -0.0002 1.0000 -0.0002
vn 0.0002 1.0000 0.0002
vn 0.5427 0.0000 0.8399
vn 0.7307 0.0000 0.6827
vn 0.8748 0.0000 0.4845
vn 0.8748 -0.0000 0.4845
vn -0.5520 -0.0000 0.8338
vn -0.7345 0.0000 0.6786
vn -0.5521 0.0000 0.8338
vn -0.8748 0.0000 0.4844
vn -0.8749 0.0000 0.4844
vn 0.7030 0.0000 -0.7111
vn 0.7030 0.0000 -0.7112
vn 0.8336 0.0000 -0.5524
vn 0.5428 -0.0000 -0.8399
vn 0.5427 0.0000 -0.8399
vn -0.8797 -0.0000 -0.4755
vn -0.8797 -0.0000 -0.4754
vn -0.7071 0.0000 -0.7071
vn -0.4755 0.0000 -0.8797
vn -0.8745 -0.0266 0.4843
vn -0.7415 -0.0276 0.6703
vn -0.7413 -0.0276 0.6706
vn -0.5694 -0.0272 0.8216
vn -0.4885 -0.0266 -0.8721
vn 0.0785 -0.9934 -0.0835
vn 0.0737 -0.9944 -0.0761
vn -0.0852 -0.9937 -0.0728
vn -0.0868 -0.9934 -0.0752
vn 0.7068 -0.0277 -0.7068
vn 0.4843 -0.0266 -0.8745
vn 0.8745 -0.0266 -0.4843
vn -0.0861 -0.9936 0.0724
vn -0.0882 -0.9934 0.0737
vn 0.0857 -0.9934 0.0763
vn 0.0817 -0.9938 0.0753
vn 0.7068 -0.0277 0.7068
vn 0.8745 -0.0266 0.4843
vn 0.4843 -0.0266 0.8745
vn -1.0000 0.0000 -0.0000
vn 0.0000 1.0000 0.0000
vn 0.0000 1.0000 -0.0000
vn -0.0000 1.0000 -0.0000
# 213 vertex normals

vt 0.6052 0.2860 0.0000
vt 0.6052 0.4369 0.0000
vt 0.5886 0.4369 0.0000
vt 0.5886 0.2860 0.0000
vt 0.6052 0.4630 0.0000
vt 0.6052 0.6130 0.0000
vt 0.5886 0.6130 0.0000
vt 0.5886 0.4630 0.0000
vt 0.6052 0.8137 0.0000
vt 0.6052 0.9669 0.0000
vt 0.5886 0.9669 0.0000
vt 0.5886 0.8137 0.0000
vt 0.6052 0.8031 0.0000
vt 0.5886 0.8031 0.0000
vt 0.5886 0.7922 0.0000
vt 0.6052 0.7922 0.0000
vt 0.6052 0.9929 0.0000
vt 0.5886 0.9929 0.0000
vt 0.5886 0.9794 0.0000
vt 0.6052 0.9794 0.0000
vt 0.5886 0.4497 0.0000
vt 0.6052 0.4497 0.0000
vt 0.6052 0.6264 0.0000
vt 0.5886 0.6264 0.0000
vt 0.6052 0.6399 0.0000
vt 0.5886 0.6399 0.0000
vt 0.6666 0.3937 0.0000
vt 0.6666 0.4037 0.0000
vt 0.6505 0.4037 0.0000
vt 0.6505 0.3937 0.0000
vt 0.6666 0.4136 0.0000
vt 0.6505 0.4136 0.0000
vt 0.6666 0.8662 0.0000
vt 0.6505 0.8662 0.0000
vt 0.6505 0.8544 0.0000
vt 0.6666 0.8544 0.0000
vt 0.6505 0.8427 0.0000
vt 0.6666 0.8427 0.0000
vt 0.8073 0.4037 0.0000
vt 0.8073 0.4136 0.0000
vt 0.8073 0.3937 0.0000
vt 0.8073 0.8427 0.0000
vt 0.8073 0.8544 0.0000
vt 0.6666 0.5539 0.0000
vt 0.6666 0.5422 0.0000
vt 0.8073 0.5422 0.0000
vt 0.8073 0.5539 0.0000
vt 0.8073 0.5657 0.0000
vt 0.6666 0.5657 0.0000
vt 0.7588 0.2282 0.0000
vt 0.7768 0.2483 0.0000
vt 0.7668 0.2561 0.0000
vt 0.7475 0.2366 0.0000
vt 0.6155 0.7922 0.0000
vt 0.6155 0.8031 0.0000
vt 0.6155 0.9669 0.0000
vt 0.6155 0.8137 0.0000
vt 0.7370 0.2132 0.0000
vt 0.7279 0.2184 0.0000
vt 0.7281 0.1040 0.0000
vt 0.7371 0.1080 0.0000
vt 0.7589 0.0928 0.0000
vt 0.7771 0.0727 0.0000
vt 0.5706 0.6130 0.0000
vt 0.5706 0.4630 0.0000
vt 0.6666 0.9928 0.0000
vt 0.8073 0.8662 0.0000
vt 0.8073 0.9928 0.0000
vt 0.8073 0.6923 0.0000
vt 0.6666 0.6923 0.0000
vt 0.6505 0.5422 0.0000
vt 0.6358 0.7158 0.0000
vt 0.6505 0.7158 0.0000
vt 0.6358 0.8427 0.0000
vt 0.6155 0.6130 0.0000
vt 0.6155 0.4630 0.0000
vt 0.6155 0.6395 0.0000
vt 0.6666 0.7158 0.0000
vt 0.6155 0.2860 0.0000
vt 0.6155 0.4369 0.0000
vt 0.6358 0.5422 0.0000
vt 0.6358 0.4136 0.0000
vt 0.6505 0.5657 0.0000
vt 0.6505 0.6923 0.0000
vt 0.6358 0.6923 0.0000
vt 0.6358 0.5657 0.0000
vt 0.6505 0.9928 0.0000
vt 0.6358 0.9928 0.0000
vt 0.6358 0.8662 0.0000
vt 0.8073 0.7158 0.0000
vt 0.7395 0.0735 0.0000
vt 0.7240 0.0952 0.0000
vt 0.6192 0.0939 0.0000
vt 0.6041 0.0719 0.0000
vt 0.5829 0.2273 0.0000
vt 0.5831 0.0920 0.0000
vt 0.6049 0.1074 0.0000
vt 0.6049 0.2120 0.0000
vt 0.7388 0.2484 0.0000
vt 0.6036 0.2481 0.0000
vt 0.6190 0.2265 0.0000
vt 0.7235 0.2267 0.0000
vt 0.5706 0.4369 0.0000
vt 0.5706 0.2860 0.0000
vt 0.5841 0.0537 0.0000
vt 0.7597 0.0554 0.0000
vt 0.7587 0.2677 0.0000
vt 0.5835 0.2672 0.0000
vt 0.5655 0.2472 0.0000
vt 0.5658 0.0720 0.0000
vt 0.5706 0.9669 0.0000
vt 0.5706 0.8137 0.0000
vt 0.5706 0.7922 0.0000
vt 0.5706 0.6395 0.0000
vt 0.6505 0.5539 0.0000
vt 0.6505 0.7040 0.0000
vt 0.6666 0.7040 0.0000
vt 0.8073 0.7040 0.0000
vt 0.7473 0.0851 0.0000
vt 0.5955 0.0833 0.0000
vt 0.6134 0.1030 0.0000
vt 0.5951 0.2361 0.0000
vt 0.6133 0.2178 0.0000
vt 0.5761 0.0639 0.0000
vt 0.7667 0.0657 0.0000
vt 0.5755 0.2553 0.0000
vt 0.5706 0.4497 0.0000
vt 0.5706 0.9794 0.0000
vt 0.5706 0.9929 0.0000
vt 0.5706 0.6264 0.0000
vt 0.5706 0.8031 0.0000
vt 0.6155 0.9794 0.0000
vt 0.6155 0.9929 0.0000
vt 0.6358 0.8544 0.0000
vt 0.6358 0.4037 0.0000
vt 0.6358 0.3937 0.0000
vt 0.6155 0.6264 0.0000
vt 0.6358 0.5539 0.0000
vt 0.6358 0.7040 0.0000
vt 0.6155 0.4497 0.0000
# 140 texture coords

g Ke_Dep_Tivi
usemtl 04___Default
s 8
f 1/1/1 2/2/1 3/3/1 4/4/1 
f 5/5/2 6/6/3 7/7/3 8/8/2 
f 9/9/4 10/10/5 11/11/6 12/12/7 
s 32
f 13/13/8 14/14/9 15/15/10 16/16/11 
f 9/9/12 12/12/13 14/14/9 13/13/8 
s 16
f 1/17/14 4/18/14 17/19/15 18/20/16 
f 10/10/17 18/20/16 17/19/15 11/11/18 
f 8/8/19 19/21/20 20/22/21 5/5/22 
f 20/22/21 19/21/20 3/3/23 2/2/23 
s 32
f 7/7/24 6/6/25 21/23/26 22/24/27 
f 21/23/26 23/25/28 24/26/29 22/24/27 
s 1
f 25/27/30 26/28/31 27/29/32 28/30/33 
f 29/31/34 30/32/35 27/29/32 26/28/31 
f 31/33/36 32/34/37 33/35/38 34/36/39 
f 33/35/38 35/37/40 36/38/41 34/36/39 
f 37/39/42 38/40/43 29/31/34 26/28/31 
f 25/27/30 39/41/44 37/39/42 26/28/31 
f 40/42/45 41/43/46 34/36/39 36/38/41 
f 42/44/47 43/45/48 44/46/49 45/47/50 
f 42/44/47 45/47/50 46/48/51 47/49/52 
s 2
f 48/50/53 49/51/54 50/52/54 51/53/55 
f 13/13/56 16/16/57 52/54/57 53/55/58 
s 1
f 54/56/59 10/10/59 9/9/59 55/57/59 
f 56/58/60 57/59/61 58/60/62 59/61/63 
s 2
f 48/50/53 60/62/64 61/63/65 49/51/54 
s 1
f 62/64/66 63/65/66 8/8/66 7/7/66 
s 2
f 25/66/67 31/33/68 64/67/69 39/68/69 
s 16
f 24/26/70 23/25/71 16/16/72 15/15/73 
s 2
f 65/69/74 66/70/75 47/49/76 46/48/74 
f 30/32/77 29/31/78 43/45/79 67/71/80 
s 4
f 68/72/81 69/73/82 35/37/83 70/74/84 
s 1
f 70/75/85 6/6/85 5/5/85 68/76/85 
f 16/16/86 23/25/86 71/77/86 52/54/87 
s 2
f 36/38/88 35/37/89 69/73/89 72/78/88 
s 1
f 1/1/90 73/79/90 74/80/90 2/2/90 
s 4
f 67/71/91 54/81/92 55/82/93 30/32/94 
s 2
f 75/83/95 47/49/76 66/70/75 76/84/96 
s 4
f 76/84/97 74/85/98 73/86/99 75/83/100 
s 2
f 25/66/67 28/87/101 32/34/102 31/33/68 
s 4
f 28/87/103 52/88/104 71/89/105 32/34/106 
s 2
f 40/42/107 36/38/88 72/78/88 77/90/66 
s 4
f 78/91/108 79/92/108 80/93/109 81/94/109 
f 82/95/110 83/96/110 84/97/110 85/98/110 
f 86/99/111 87/100/111 88/101/111 89/102/111 
f 56/58/112 59/61/113 60/62/114 48/50/115 
s 1
f 4/4/116 3/3/116 90/103/116 91/104/116 
s 2
f 92/105/117 93/106/118 78/91/119 81/94/120 
f 87/100/121 86/99/122 91/107/123 90/108/124 
f 63/109/125 62/110/126 83/96/127 82/95/128 
s 1
f 12/12/129 11/11/130 49/111/130 61/112/129 
f 93/113/131 92/114/132 24/26/132 15/15/131 
f 47/49/52 75/83/133 94/115/134 42/44/47 
f 43/45/48 42/44/47 94/115/134 67/71/135 
f 72/78/136 69/73/137 95/116/138 96/117/139 
f 66/70/140 96/117/139 95/116/138 76/84/141 
f 34/36/39 41/43/46 64/67/142 31/33/36 
f 97/118/143 96/117/139 66/70/140 65/69/144 
f 97/118/143 77/90/145 72/78/136 96/117/139 
s 8
f 51/53/146 86/99/147 89/102/148 57/59/149 
f 51/53/146 57/59/149 56/58/150 48/50/151 
f 98/119/152 58/60/153 79/92/154 78/91/155 
f 98/119/152 60/62/156 59/61/157 58/60/153 
f 99/120/158 100/121/159 84/97/160 83/96/161 
f 99/120/158 81/94/162 80/93/163 100/121/159 
f 88/101/164 87/100/165 101/122/166 102/123/167 
f 85/98/168 102/123/167 101/122/166 82/95/169 
s 2
f 103/124/117 99/120/170 83/96/127 62/110/126 
f 103/124/117 92/105/117 81/94/120 99/120/170 
f 60/62/64 98/119/171 104/125/171 61/63/65 
f 104/125/171 98/119/171 78/91/119 93/106/118 
f 50/52/54 91/107/123 86/99/122 51/53/55 
f 87/100/121 90/108/124 105/126/125 101/122/172 
f 82/95/128 101/122/172 105/126/125 63/109/125 
s 4
f 8/8/173 63/65/173 105/127/174 19/21/174 
f 105/127/174 90/103/175 3/3/176 19/21/174 
f 11/11/177 17/19/178 50/128/178 49/111/179 
f 4/18/180 91/129/181 50/128/178 17/19/178 
f 103/130/182 22/24/183 24/26/184 92/114/184 
f 22/24/183 103/130/182 62/64/185 7/7/186 
f 93/113/187 15/15/188 14/14/189 104/131/189 
f 12/12/190 61/112/190 104/131/189 14/14/189 
s 2
f 1/17/191 18/20/192 106/132/193 73/133/191 
f 10/10/194 54/56/194 106/132/193 18/20/192 
f 53/55/58 55/57/195 9/9/195 13/13/56 
s 4
f 35/37/83 33/35/196 107/134/197 70/74/84 
f 107/134/197 33/35/196 32/34/106 71/89/105 
f 30/32/94 55/82/93 53/135/198 27/29/199 
f 28/30/103 27/29/199 53/135/198 52/136/104 
s 2
f 107/137/200 21/23/200 6/6/201 70/75/201 
f 23/25/202 21/23/200 107/137/200 71/77/202 
s 4
f 106/138/203 94/115/204 75/83/100 73/86/99 
f 106/138/203 54/81/92 67/71/91 94/115/204 
f 76/84/97 95/116/205 108/139/206 74/85/98 
f 108/139/206 95/116/205 69/73/82 68/72/81 
s 2
f 20/22/207 2/2/208 74/80/208 108/140/207 
f 108/140/207 68/76/209 5/5/209 20/22/207 
f 44/46/210 43/45/79 29/31/78 38/40/210 
s 1
f 80/93/211 79/92/211 58/60/62 100/121/211 
f 57/59/61 89/102/212 88/101/213 102/123/213 
f 102/123/213 100/121/211 58/60/62 57/59/61 
f 102/123/213 85/98/211 84/97/211 100/121/211 
# 101 polygons

